…
Create a new data frame called `coal_country` that aggregates total exports by destination country (and quarter of year). Make sure you print the resulting data frame so that it appears in the knitted R markdown document.


```r
coal_country = coal %>% 
  group_by(year, quarter, coal_destination_country) %>% 
   summarize(sum(total, na.rm = T))

colnames(coal_country) = c("year", "quarter", "destination", "total")

coal_country
```

```
## # A tibble: 4,574 x 4
## # Groups:   year, quarter [75]
##     year quarter destination   total
##    <dbl>   <dbl> <chr>         <dbl>
##  1  2002       1 Algeria      129305
##  2  2002       1 Angola         5713
##  3  2002       1 Argentina     40159
##  4  2002       1 Australia       175
##  5  2002       1 Belgium      575556
##  6  2002       1 Brazil       709171
##  7  2002       1 Canada      2270612
##  8  2002       1 Chile           812
##  9  2002       1 China             0
## 10  2002       1 Colombia        703
## # … with 4,564 more rows
```
…
### 4.3) Complete the data frame

Fill in the implicit missing values, so that each country has a representative row for every year-quarter time period. In other words, you should modify the data frame so that every destination country has row entries for all possible year-quarter combinations (from 2002Q1 through the most recent quarter). Order your updated data frame by country, year and, quarter. 



```r
coal_country = coal_country %>%  ungroup() %>% 
  complete(quarter, year, destination, fill = list(total = 0))

coal_country
```

```
## # A tibble: 11,476 x 4
##    quarter  year destination          total
##      <dbl> <dbl> <chr>                <dbl>
##  1       1  2002 Albania                  0
##  2       1  2002 Algeria             129305
##  3       1  2002 Andorra                  0
##  4       1  2002 Angola                5713
##  5       1  2002 Anguilla                 0
##  6       1  2002 Antigua and Barbuda      0
##  7       1  2002 Argentina            40159
##  8       1  2002 Armenia                  0
##  9       1  2002 Aruba                    0
## 10       1  2002 Australia              175
## # … with 11,466 more rows
```
…
**Complete() is finding all possible combinations of quarter, year, and destination.  We don't have data for 2020q4 in the data set, but 2020q4 is a possible combination, so when the complete function ran it generated rows for it.**


```r
coal_country = coal_country %>% 
  filter(!(year == 2020 & quarter == 4))

coal_country
```

```
## # A tibble: 11,325 x 4
##    quarter  year destination          total
##      <dbl> <dbl> <chr>                <dbl>
##  1       1  2002 Albania                  0
##  2       1  2002 Algeria             129305
##  3       1  2002 Andorra                  0
##  4       1  2002 Angola                5713
##  5       1  2002 Anguilla                 0
##  6       1  2002 Antigua and Barbuda      0
##  7       1  2002 Argentina            40159
##  8       1  2002 Armenia                  0
##  9       1  2002 Aruba                    0
## 10       1  2002 Australia              175
## # … with 11,315 more rows
```
…
