US coal exports
…
4) Exports by destination country

4.1) Create a new data frame

Create a new data frame called coal_country that aggregates total exports by destination country (and quarter of year). Make sure you print the resulting data frame so that it appears in the knitted R markdown document.

coal_country = coal %>% 
  group_by(year, quarter, coal_destination_country) %>% 
   summarize(sum(total, na.rm = T))

colnames(coal_country) = c("year", "quarter", "destination", "total")

coal_country

## # A tibble: 4,574 x 4
## # Groups:   year, quarter [75]
##     year quarter destination   total
##    <dbl>   <dbl> <chr>         <dbl>
##  1  2002       1 Algeria      129305
##  2  2002       1 Angola         5713
##  3  2002       1 Argentina     40159
##  4  2002       1 Australia       175
##  5  2002       1 Belgium      575556
##  6  2002       1 Brazil       709171
##  7  2002       1 Canada      2270612
##  8  2002       1 Chile           812
##  9  2002       1 China             0
## 10  2002       1 Colombia        703
## #  with 4,564 more rows
…
Based only on the first page output (conveniently containing Albania), it is clear that the frequency with which countries appear in the data varies significantly. A reasonable explanation, I would think, is that exporters are not consistently exporting to every country on the list during every quarter of every year. Albania, for instance, only imported US coal once

4.3) Complete the data frame

Fill in the implicit missing values, so that each country has a representative row for every year-quarter time period. In other words, you should modify the data frame so that every destination country has row entries for all possible year-quarter combinations (from 2002Q1 through the most recent quarter). Order your updated data frame by country, year and, quarter.

coal_country = coal_country %>%  ungroup() %>% 
  complete(quarter, year, destination, fill = list(total = 0))

coal_country

## # A tibble: 11,476 x 4
##    quarter  year destination          total
##      <dbl> <dbl> <chr>                <dbl>
##  1       1  2002 Albania                  0
##  2       1  2002 Algeria             129305
##  3       1  2002 Andorra                  0
##  4       1  2002 Angola                5713
##  5       1  2002 Anguilla                 0
##  6       1  2002 Antigua and Barbuda      0
##  7       1  2002 Argentina            40159
##  8       1  2002 Armenia                  0
##  9       1  2002 Aruba                    0
## 10       1  2002 Australia              175
## #  with 11,466 more rows
…
In answering the previous question, you may encounter a situation where the data frame contains a quarter  probably 2020q4  that is missing total export numbers for all countries. Did this happen to you? Filter out the completely missing quarter if so. Also: Why do you think this might have happened? (Please answer the latter question even if it didnt happen to you.)

gsub("\\.", "q", lubridate::quarter(Sys.Date()-months(3), with_year = TRUE))

## [1] "2020q4"

Complete() is finding all possible combinations of quarter, year, and destination. We dont have data for 2020q4 in the data set, but 2020q4 is a possible combination, so when the complete function ran it generated rows for it.

coal_country = coal_country %>% 
  filter(!(year == 2020 & quarter == 4))

coal_country

## # A tibble: 11,325 x 4
##    quarter  year destination          total
##      <dbl> <dbl> <chr>                <dbl>
##  1       1  2002 Albania                  0
##  2       1  2002 Algeria             129305
##  3       1  2002 Andorra                  0
##  4       1  2002 Angola                5713
##  5       1  2002 Anguilla                 0
##  6       1  2002 Antigua and Barbuda      0
##  7       1  2002 Argentina            40159
##  8       1  2002 Armenia                  0
##  9       1  2002 Aruba                    0
## 10       1  2002 Australia              175
## #  with 11,315 more rows
…
